Segregation
15,16
1,1,1,1,1,1,1,1,1,1,1,1,2,1,1
2,0,0,1,1,1,2,1,1,1,1,1,1,1,1
2,0,0,0,1,1,1,2,1,2,1,2,1,1,1
2,2,0,0,0,1,1,1,1,1,1,1,1,1,1
2,1,2,0,0,0,1,1,2,1,2,1,1,2,1
2,2,2,2,0,0,0,1,1,1,2,1,2,1,1
2,2,1,2,0,0,0,0,1,1,1,2,1,1,1
2,2,2,2,2,0,0,0,0,1,1,1,1,2,1
1,2,2,2,2,2,0,0,0,0,1,1,2,1,1
2,2,1,2,2,1,2,0,0,0,0,1,1,1,1
2,2,2,2,1,2,2,2,0,0,0,0,1,2,1
2,1,2,1,2,2,2,2,2,0,0,0,0,1,1
2,2,2,2,2,2,1,2,1,2,0,0,0,0,1
2,2,1,2,1,2,2,2,2,2,2,0,0,0,1
1,2,2,1,2,2,2,2,1,2,2,2,2,2,2
0,0,0,0,0,0,0,0,0,0,0,0,0,0,0